{
  "type": "service_account",
  "project_id": "vaibhav-helper",
  "private_key_id": "d152f633680b0f30a601a900e6e5de6bf9690ae5",
  "private_key": "-----BEGIN PRIVATE KEY-----\nMIIEvgIBADANBgkqhkiG9w0BAQEFAASCBKgwggSkAgEAAoIBAQCf0SRuizakGK3J\nCcsV7D+pmbBvz8rJ9/lUjgw4zy+iTKyTO5FGRVKkpUkP5DFqD/OLtPlPNLGBfBZh\n4bXrgXFn3vZWqM62BQopiwpxra5tjKKUUt8r5suaiV2doUWRqBUlSTz+v0myq/ms\nKcS9gqUftmp1q3pSzrokJepQJ5uHaj8kh6kg+eZK6lNiuPVBifA+r51tJuckhGHt\nlkQY+cB6jTdoVlGataDpg/Hrwq/OV0TCUZhajwug55V4T43ylaH8WlQw983T0zId\nSa/8md1AsG+jkqwBfs3Jy6Qx6X9bBmDSisYEcEK73C5q2xPu4xu/v7spxUbBthv1\ng9oFcBc1AgMBAAECggEAHCphv1GtmZH33rxpHD38oklBvRLj7GBVgr9eDA0HmhTl\nPTV8TuQcwoOWssRGqSiShYapgXoJ5oYV874xr4WqlOHIjFFHzPBqcBPfDVXMreXh\nKT7JshUEwQGAjC1F83up7l5P752KwYBpihv6XmPN8h7V+FL2Re3FBGXiO6ofUOfz\nTRHNnMe/OOQniJJ7wOnC027tWlY8n4Pc2nzGiLCsplCeiUVzF9FTuo0n/Cj78cjD\n0hFHL5YooejThr0bTeKo020m+Co7wvsZpkzzRkuQsFQ2jVzDZ0QJeEOAjf+dS8fF\nzmlAoBPovUeSR+5ARji0+/DKlY/rBUpD5/NFVqizwQKBgQDRxPNrxR1I0NKwuXyE\nA+Y4fiQXbCxo1eKsMO87wtEbb73yXOUgG1p+7dboZZw5ZOmnf5GPZonEw/CG3B7h\nKpizQPSBrAVdoIacq43x7THPbUdW0FPZWSx+fyXg9xiT782moWcap9cX5x9vbVqR\ndmtblgrNqsg5utU5kz3qAl6g3QKBgQDDCek0CWyNJlMG33M5zG8a479qUIOJkn0W\nAwLFXgXFvC+qmtjIO3qdy/VTb4VeXlSIaFxxulGbQ5lE95UfnZw8N5usXf/fIQQ5\nkEND/q0CFLtDb0x1kOJGJzUEDMEndCcBP00YEj8pTCcZ4DBQXkq635f4II57Pw8j\nJM6eoB/+OQKBgQCQmFlO5U3dXoyM4x7whRuRv2mzd45ZKW4ZUZXmtNCdP/ZH9T6/\nVfuYWOv1v+zjJytkmSvGFGFM79+BpoPmpA0kKtcf92qvcjK4Fg0/QUg/ek1dizbx\nMGXaQFzk6I7ZkshIXyOKHT3ILTne/hsa/+za8d86i8l++cl26YcZIk8GRQKBgAvD\noEZcPyjwY9epSLj2xMjZbeVKv/RfWp4mRleDSVPY+wMOXf8N32J/N+f1dRTxGaY0\nrUbK1ztHQ4puaJdEmXTkYcZu0Q0zX57dPcFvLh5PA9CYeQMqXwueN8trvYbUsbmY\niNzn1Nl312/vHtrqJRXKgM8dn5p9fjs/cBsPS365AoGBALy/Iry20kuZKh2Vpn/n\ni9EShZWpwmvZLb2lRUN8WkoxgI0AypQz54GCXJP26kuSH523+WubVqrrh6GqWmBD\nAgFIIFZC2PYfk4amZCPiF0yGXk+9BR2jz+/6WnkaeHOkAU6sL4KUWNZUkojnF7wf\nE2JQMwnDXCkVAaNsvts1mvhz\n-----END PRIVATE KEY-----\n",
  "client_email": "firebase-adminsdk-fcndn@vaibhav-helper.iam.gserviceaccount.com",
  "client_id": "109161394773774467723",
  "auth_uri": "https://accounts.google.com/o/oauth2/auth",
  "token_uri": "https://oauth2.googleapis.com/token",
  "auth_provider_x509_cert_url": "https://www.googleapis.com/oauth2/v1/certs",
  "client_x509_cert_url": "https://www.googleapis.com/robot/v1/metadata/x509/firebase-adminsdk-fcndn%40vaibhav-helper.iam.gserviceaccount.com"
}
